<?xml version="1.0" encoding="utf-8"?>
<!-- Generator: Adobe Illustrator 22.1.0, SVG Export Plug-In . SVG Version: 6.00 Build 0)  -->
<svg version="1.1" id="Capa_1" xmlns="http://www.w3.org/2000/svg" xmlns:xlink="http://www.w3.org/1999/xlink" x="0px" y="0px"
	 viewBox="0 0 1909 272" style="enable-background:new 0 0 1909 272;" xml:space="preserve">
<style type="text/css">
	.st0{fill:#003756;}
</style>
<g>
	<g>
		<g>
			<path class="st0" d="M305.4,104.3c0-0.1,0-0.2-0.1-0.3c0-0.3-0.1-0.6-0.2-0.9c-0.1-0.3-0.1-0.5-0.3-0.8c-0.1-0.2-0.3-0.5-0.5-0.7
				c-0.2-0.3-0.4-0.5-0.6-0.7c-0.1-0.1-0.1-0.1-0.2-0.2l-43.6-33.9V31.7c0-7.5-6.1-13.6-13.6-13.6h-49.1L177.7,2.8
				c-4.9-3.8-11.7-3.8-16.5,0l-19.7,15.3H92.4c-7.5,0-13.6,6.1-13.6,13.6v35.1l-43.6,33.9c-0.1,0.1-0.1,0.1-0.2,0.2
				c-0.2,0.2-0.4,0.5-0.6,0.7c-0.2,0.2-0.3,0.4-0.5,0.7c-0.1,0.3-0.2,0.5-0.3,0.8c-0.1,0.3-0.2,0.6-0.2,0.9c0,0.1-0.1,0.2-0.1,0.3
				v154.2c0,1.5,0.3,2.9,0.8,4.3c-1,1.6-1,3.6,0.1,5.1c1.1,1.5,3.1,2.2,4.9,1.7c2.3,1.6,5,2.5,7.9,2.5h244.8c2.8,0,5.6-0.9,7.9-2.6
				c0.4,0.1,0.8,0.2,1.2,0.2c1.7,0,3.2-0.9,4-2.3c0.8-1.5,0.7-3.2-0.2-4.6c0.5-1.4,0.7-2.8,0.8-4.3L305.4,104.3L305.4,104.3z
				 M166.7,10c1.6-1.3,3.8-1.3,5.4,0l10.5,8.1h-26.3L166.7,10z M48.1,262.9l118.6-92.1c1.6-1.3,3.8-1.3,5.4,0l118.6,92.1H48.1z
				 M296.4,255.9l-118.7-92.2c-4.9-3.8-11.7-3.8-16.5,0L42.5,255.9V111.2l74.3,57.7c2,1.5,4.8,1.2,6.4-0.8c1.5-2,1.2-4.8-0.8-6.4
				l-75.5-58.6l31.9-24.8v35c0,2.5,2,4.5,4.5,4.5c2.5,0,4.5-2,4.5-4.5V31.7c0-2.5,2-4.5,4.5-4.5h154.1c2.5,0,4.5,2,4.5,4.5v81.6
				c0,2.5,2,4.5,4.5,4.5s4.5-2,4.5-4.5v-35l31.9,24.8l-75.6,58.7c-2,1.5-2.3,4.4-0.8,6.4c1.5,2,4.4,2.3,6.4,0.8l74.4-57.8V255.9z"/>
			<path class="st0" d="M124.1,58.9h90.7c2.5,0,4.5-2,4.5-4.5s-2-4.5-4.5-4.5h-90.7c-2.5,0-4.5,2-4.5,4.5S121.6,58.9,124.1,58.9z"/>
			<path class="st0" d="M219.3,81.6c0-2.5-2-4.5-4.5-4.5h-90.7c-2.5,0-4.5,2-4.5,4.5c0,2.5,2,4.5,4.5,4.5h90.7
				C217.3,86.1,219.3,84.1,219.3,81.6z"/>
			<path class="st0" d="M219.3,108.8c0-2.5-2-4.5-4.5-4.5H174c-2.5,0-4.5,2-4.5,4.5c0,2.5,2,4.5,4.5,4.5h40.8
				C217.3,113.3,219.3,111.3,219.3,108.8z"/>
		</g>
	</g>
</g>
</svg>
